last-generated=2017-11-09
statistics-initialization=
{
  "numerical Jacobians": "0", 
  "nonlinear": "1, 1, 1"
}
statistics-simulation=
{
  "numerical Jacobians": "0", 
  "nonlinear": "0", 
  "number of continuous time states": "50", 
  "linear": " "
}
hex.sta_b1.T=[2.931499938964844e+02, 2.933303833007812e+02, 2.924491882324219e+02, 2.907566833496094e+02, 2.907115478515625e+02, 2.907204284667969e+02, 2.908306579589844e+02, 2.910295104980469e+02, 2.913006591796875e+02, 2.914587707519531e+02, 2.915558166503906e+02, 2.919258117675781e+02, 2.923216247558594e+02, 2.9257568359375e+02, 2.927312622070312e+02, 2.928105773925781e+02, 2.928345642089844e+02, 2.927951049804688e+02, 2.923784484863281e+02, 2.91469482421875e+02, 2.900062255859375e+02, 2.882674865722656e+02, 2.869207763671875e+02, 2.863742065429688e+02, 2.862276306152344e+02, 2.862971801757812e+02, 2.864267578125e+02, 2.864794616699219e+02, 2.864419860839844e+02, 2.86385009765625e+02, 2.863707580566406e+02, 2.863982543945312e+02, 2.864337158203125e+02, 2.864476623535156e+02, 2.864302368164062e+02, 2.863993225097656e+02, 2.863738098144531e+02, 2.863594055175781e+02, 2.863530578613281e+02, 2.863507385253906e+02, 2.863499450683594e+02, 2.863497009277344e+02, 2.863496398925781e+02, 2.863496398925781e+02, 2.863496398925781e+02, 2.863496398925781e+02, 2.863496398925781e+02, 2.863496398925781e+02, 2.863496398925781e+02, 2.863496398925781e+02, 2.863496398925781e+02, 2.864631958007812e+02, 2.867239074707031e+02, 2.870657653808594e+02, 2.874723205566406e+02, 2.879355163574219e+02, 2.884361572265625e+02, 2.889447021484375e+02, 2.894171752929688e+02, 2.898564758300781e+02, 2.902832641601562e+02, 2.907077331542969e+02, 2.911047668457031e+02, 2.915057678222656e+02, 2.919107360839844e+02, 2.922820129394531e+02, 2.926544494628906e+02, 2.930386657714844e+02, 2.936565856933594e+02, 2.94231201171875e+02, 2.945517272949219e+02, 2.94737548828125e+02, 2.948728332519531e+02, 2.949642028808594e+02, 2.950201416015625e+02, 2.950499267578125e+02, 2.950618591308594e+02, 2.950627746582031e+02, 2.950581359863281e+02, 2.950494995117188e+02, 2.950271606445312e+02, 2.9500634765625e+02, 2.949937438964844e+02, 2.949907836914062e+02, 2.9497705078125e+02, 2.949236755371094e+02, 2.949077758789062e+02, 2.949610900878906e+02, 2.950398559570312e+02, 2.950845336914062e+02, 2.950994873046875e+02, 2.950998840332031e+02, 2.950953063964844e+02, 2.950889892578125e+02, 2.950810241699219e+02, 2.950710144042969e+02, 2.950593566894531e+02, 2.950470275878906e+02, 2.950351867675781e+02, 2.950247497558594e+02, 2.950162048339844e+02]
time=[0e+00, 3.6e+03]
hex.sta_a1.T=[2.781499938964844e+02, 2.781499938964844e+02, 2.781499938964844e+02, 2.781499938964844e+02, 2.781499938964844e+02, 2.781499938964844e+02, 2.781499938964844e+02, 2.781499938964844e+02, 2.781499938964844e+02, 2.781499938964844e+02, 2.781499938964844e+02, 2.781499938964844e+02, 2.781499938964844e+02, 2.781499938964844e+02, 2.781499938964844e+02, 2.781499938964844e+02, 2.781499938964844e+02, 2.781499938964844e+02, 2.781499938964844e+02, 2.781499938964844e+02, 2.781499938964844e+02, 2.781499938964844e+02, 2.781499938964844e+02, 2.781499938964844e+02, 2.781499938964844e+02, 2.781499938964844e+02, 2.781499938964844e+02, 2.781499938964844e+02, 2.781499938964844e+02, 2.781499938964844e+02, 2.781499938964844e+02, 2.781499938964844e+02, 2.781499938964844e+02, 2.781499938964844e+02, 2.781499938964844e+02, 2.781499938964844e+02, 2.781499938964844e+02, 2.781499938964844e+02, 2.781499938964844e+02, 2.781499938964844e+02, 2.781499938964844e+02, 2.781499938964844e+02, 2.781499938964844e+02, 2.781499938964844e+02, 2.781499938964844e+02, 2.781499938964844e+02, 2.781499938964844e+02, 2.781499938964844e+02, 2.781499938964844e+02, 2.781499938964844e+02, 2.781499938964844e+02, 2.781499938964844e+02, 2.781499938964844e+02, 2.781499938964844e+02, 2.781499938964844e+02, 2.781499938964844e+02, 2.781499938964844e+02, 2.781499938964844e+02, 2.781499938964844e+02, 2.781499938964844e+02, 2.781499938964844e+02, 2.781499938964844e+02, 2.781499938964844e+02, 2.781499938964844e+02, 2.781499938964844e+02, 2.781499938964844e+02, 2.781499938964844e+02, 2.781499938964844e+02, 2.781499938964844e+02, 2.781499938964844e+02, 2.781499938964844e+02, 2.781499938964844e+02, 2.781499938964844e+02, 2.781499938964844e+02, 2.781499938964844e+02, 2.781499938964844e+02, 2.781499938964844e+02, 2.781499938964844e+02, 2.781499938964844e+02, 2.781499938964844e+02, 2.781499938964844e+02, 2.781499938964844e+02, 2.781499938964844e+02, 2.781499938964844e+02, 2.881499938964844e+02, 2.881499938964844e+02, 2.881499938964844e+02, 2.881499938964844e+02, 2.881499938964844e+02, 2.881499938964844e+02, 2.881499938964844e+02, 2.881499938964844e+02, 2.881499938964844e+02, 2.881499938964844e+02, 2.881499938964844e+02, 2.881499938964844e+02, 2.881499938964844e+02, 2.881499938964844e+02, 2.881499938964844e+02, 2.881499938964844e+02, 2.881499938964844e+02]
hex.sta_b2.T=[2.931499938964844e+02, 2.947010192871094e+02, 2.923202209472656e+02, 2.903183288574219e+02, 2.905466003417969e+02, 2.911571044921875e+02, 2.918030090332031e+02, 2.924407958984375e+02, 2.93064208984375e+02, 2.936250610351562e+02, 2.937699279785156e+02, 2.936286010742188e+02, 2.934114379882812e+02, 2.93367431640625e+02, 2.933655395507812e+02, 2.934175415039062e+02, 2.934511108398438e+02, 2.934364624023438e+02, 2.929945678710938e+02, 2.918461608886719e+02, 2.906089782714844e+02, 2.896065979003906e+02, 2.889939270019531e+02, 2.888228454589844e+02, 2.889024047851562e+02, 2.890115661621094e+02, 2.890499267578125e+02, 2.890115966796875e+02, 2.889527587890625e+02, 2.889349060058594e+02, 2.889674072265625e+02, 2.890058898925781e+02, 2.890089721679688e+02, 2.889969787597656e+02, 2.889779968261719e+02, 2.889608764648438e+02, 2.889505004882812e+02, 2.889454345703125e+02, 2.889433898925781e+02, 2.889426574707031e+02, 2.889424438476562e+02, 2.889423522949219e+02, 2.889423522949219e+02, 2.889423522949219e+02, 2.889423522949219e+02, 2.889423522949219e+02, 2.889423522949219e+02, 2.889423522949219e+02, 2.889423522949219e+02, 2.889423522949219e+02, 2.889423522949219e+02, 2.8901806640625e+02, 2.893265075683594e+02, 2.897553100585938e+02, 2.902031860351562e+02, 2.906300964355469e+02, 2.910196838378906e+02, 2.913617553710938e+02, 2.917040710449219e+02, 2.920884399414062e+02, 2.924991760253906e+02, 2.9289453125e+02, 2.932956848144531e+02, 2.937098083496094e+02, 2.94105712890625e+02, 2.944995727539062e+02, 2.949148559570312e+02, 2.953163452148438e+02, 2.955971069335938e+02, 2.955033264160156e+02, 2.953019714355469e+02, 2.952833557128906e+02, 2.953010559082031e+02, 2.9531396484375e+02, 2.953240966796875e+02, 2.953336486816406e+02, 2.953440856933594e+02, 2.953563842773438e+02, 2.953709716796875e+02, 2.953753967285156e+02, 2.953072509765625e+02, 2.953035888671875e+02, 2.953311462402344e+02, 2.953640441894531e+02, 2.948583679199219e+02, 2.949754028320312e+02, 2.952012023925781e+02, 2.9539599609375e+02, 2.954646301269531e+02, 2.954675598144531e+02, 2.9546044921875e+02, 2.954512023925781e+02, 2.954413452148438e+02, 2.954314575195312e+02, 2.954217834472656e+02, 2.954127197265625e+02, 2.954046630859375e+02, 2.953978576660156e+02, 2.953923950195312e+02, 2.953882141113281e+02, 2.953851623535156e+02]
hex.hexReg[1].ele[1, 1].vol2.T=[2.931499938964844e+02, 2.964933776855469e+02, 2.959000854492188e+02, 2.9606103515625e+02, 2.966842956542969e+02, 2.973888549804688e+02, 2.980635375976562e+02, 2.986601867675781e+02, 2.991868286132812e+02, 2.988423156738281e+02, 2.967561950683594e+02, 2.962496032714844e+02, 2.962780151367188e+02, 2.964283752441406e+02, 2.964947814941406e+02, 2.96587158203125e+02, 2.965581665039062e+02, 2.965095520019531e+02, 2.96158447265625e+02, 2.960136413574219e+02, 2.959979248046875e+02, 2.959956665039062e+02, 2.959961242675781e+02, 2.960514831542969e+02, 2.960722961425781e+02, 2.960578918457031e+02, 2.960346374511719e+02, 2.960211486816406e+02, 2.960291442871094e+02, 2.960422668457031e+02, 2.9605029296875e+02, 2.960447692871094e+02, 2.960357055664062e+02, 2.960346069335938e+02, 2.960344543457031e+02, 2.96034423828125e+02, 2.96034423828125e+02, 2.96034423828125e+02, 2.96034423828125e+02, 2.96034423828125e+02, 2.96034423828125e+02, 2.96034423828125e+02, 2.96034423828125e+02, 2.96034423828125e+02, 2.96034423828125e+02, 2.96034423828125e+02, 2.96034423828125e+02, 2.96034423828125e+02, 2.96034423828125e+02, 2.96034423828125e+02, 2.96034423828125e+02, 2.961011657714844e+02, 2.962435607910156e+02, 2.963449096679688e+02, 2.963778991699219e+02, 2.963880920410156e+02, 2.963915405273438e+02, 2.963973388671875e+02, 2.964963989257812e+02, 2.966360168457031e+02, 2.967550354003906e+02, 2.968259582519531e+02, 2.970046997070312e+02, 2.971738891601562e+02, 2.972835083007812e+02, 2.975127563476562e+02, 2.9779443359375e+02, 2.980053100585938e+02, 2.972734985351562e+02, 2.965187683105469e+02, 2.964754028320312e+02, 2.966471862792969e+02, 2.967337646484375e+02, 2.967728881835938e+02, 2.967969360351562e+02, 2.968104248046875e+02, 2.968177185058594e+02, 2.968216552734375e+02, 2.968238220214844e+02, 2.967803955078125e+02, 2.966959838867188e+02, 2.967606201171875e+02, 2.968070983886719e+02, 2.968354187011719e+02, 2.95310546875e+02, 2.958885192871094e+02, 2.963900756835938e+02, 2.967610168457031e+02, 2.968639221191406e+02, 2.968752136230469e+02, 2.968787231445312e+02, 2.968800964355469e+02, 2.968805847167969e+02, 2.968807678222656e+02, 2.968808288574219e+02, 2.968808288574219e+02, 2.96880859375e+02, 2.96880859375e+02, 2.96880859375e+02, 2.96880859375e+02, 2.96880859375e+02]
hex.hexReg[1].ele[1, 1].vol1.T=[2.931499938964844e+02, 2.795660095214844e+02, 2.790582275390625e+02, 2.80270751953125e+02, 2.832077026367188e+02, 2.855723876953125e+02, 2.876376953125e+02, 2.894597778320312e+02, 2.910677490234375e+02, 2.869367065429688e+02, 2.813721618652344e+02, 2.803748168945312e+02, 2.808255004882812e+02, 2.814186401367188e+02, 2.816898193359375e+02, 2.820725708007812e+02, 2.818080749511719e+02, 2.814024353027344e+02, 2.797694396972656e+02, 2.794904174804688e+02, 2.794708557128906e+02, 2.794692993164062e+02, 2.79496826171875e+02, 2.797600402832031e+02, 2.798023986816406e+02, 2.796887817382812e+02, 2.796049194335938e+02, 2.795722351074219e+02, 2.796248779296875e+02, 2.79687255859375e+02, 2.797038269042969e+02, 2.796554870605469e+02, 2.796356811523438e+02, 2.796339111328125e+02, 2.796337280273438e+02, 2.796336975097656e+02, 2.796336975097656e+02, 2.796336975097656e+02, 2.796336975097656e+02, 2.796336975097656e+02, 2.796336975097656e+02, 2.796336975097656e+02, 2.796336975097656e+02, 2.796336975097656e+02, 2.796336975097656e+02, 2.796336975097656e+02, 2.796336975097656e+02, 2.796336975097656e+02, 2.796336975097656e+02, 2.796336975097656e+02, 2.796336975097656e+02, 2.800860595703125e+02, 2.80699462890625e+02, 2.810240783691406e+02, 2.811170349121094e+02, 2.811441345214844e+02, 2.811520690917969e+02, 2.812464904785156e+02, 2.817604675292969e+02, 2.824009094238281e+02, 2.828239135742188e+02, 2.830295104980469e+02, 2.837597961425781e+02, 2.842226257324219e+02, 2.84518310546875e+02, 2.855010375976562e+02, 2.863224182128906e+02, 2.868072814941406e+02, 2.830770568847656e+02, 2.813065490722656e+02, 2.817098999023438e+02, 2.823832092285156e+02, 2.826836547851562e+02, 2.828191528320312e+02, 2.828840637207031e+02, 2.829183044433594e+02, 2.829365539550781e+02, 2.829463195800781e+02, 2.829515380859375e+02, 2.826498413085938e+02, 2.825033264160156e+02, 2.827996520996094e+02, 2.829364318847656e+02, 2.830084838867188e+02, 2.853951721191406e+02, 2.871302795410156e+02, 2.886640625e+02, 2.895616455078125e+02, 2.896841125488281e+02, 2.897025756835938e+02, 2.897103881835938e+02, 2.897135009765625e+02, 2.897147521972656e+02, 2.897152404785156e+02, 2.897154541015625e+02, 2.897155151367188e+02, 2.897155456542969e+02, 2.897155456542969e+02, 2.897155456542969e+02, 2.89715576171875e+02, 2.89715576171875e+02]
hex.sta_a2.T=[3.031499938964844e+02, 3.031499938964844e+02, 3.031499938964844e+02, 3.031499938964844e+02, 3.031499938964844e+02, 3.031499938964844e+02, 3.031499938964844e+02, 3.031499938964844e+02, 3.031499938964844e+02, 3.031499938964844e+02, 3.031499938964844e+02, 3.031499938964844e+02, 3.031499938964844e+02, 3.031499938964844e+02, 3.031499938964844e+02, 3.031499938964844e+02, 3.031499938964844e+02, 3.031499938964844e+02, 3.031499938964844e+02, 3.031499938964844e+02, 3.031499938964844e+02, 3.031499938964844e+02, 3.031499938964844e+02, 3.031499938964844e+02, 3.031499938964844e+02, 3.031499938964844e+02, 3.031499938964844e+02, 3.031499938964844e+02, 3.031499938964844e+02, 3.031499938964844e+02, 3.031499938964844e+02, 3.031499938964844e+02, 3.031499938964844e+02, 3.031499938964844e+02, 3.031499938964844e+02, 3.031499938964844e+02, 3.031499938964844e+02, 3.031499938964844e+02, 3.031499938964844e+02, 3.031499938964844e+02, 3.031499938964844e+02, 3.031499938964844e+02, 3.031499938964844e+02, 3.031499938964844e+02, 3.031499938964844e+02, 3.031499938964844e+02, 3.031499938964844e+02, 3.031499938964844e+02, 3.031499938964844e+02, 3.031499938964844e+02, 3.031499938964844e+02, 3.031499938964844e+02, 3.031499938964844e+02, 3.031499938964844e+02, 3.031499938964844e+02, 3.031499938964844e+02, 3.031499938964844e+02, 3.031499938964844e+02, 3.031499938964844e+02, 3.031499938964844e+02, 3.031499938964844e+02, 3.031499938964844e+02, 3.031499938964844e+02, 3.031499938964844e+02, 3.031499938964844e+02, 3.031499938964844e+02, 3.031499938964844e+02, 3.031499938964844e+02, 3.031499938964844e+02, 3.031499938964844e+02, 3.031499938964844e+02, 3.031499938964844e+02, 3.031499938964844e+02, 3.031499938964844e+02, 3.031499938964844e+02, 3.031499938964844e+02, 3.031499938964844e+02, 3.031499938964844e+02, 3.031499938964844e+02, 3.031499938964844e+02, 3.031499938964844e+02, 3.031499938964844e+02, 3.031499938964844e+02, 3.031499938964844e+02, 3.001499938964844e+02, 3.001499938964844e+02, 3.001499938964844e+02, 3.001499938964844e+02, 3.001499938964844e+02, 3.001499938964844e+02, 3.001499938964844e+02, 3.001499938964844e+02, 3.001499938964844e+02, 3.001499938964844e+02, 3.001499938964844e+02, 3.001499938964844e+02, 3.001499938964844e+02, 3.001499938964844e+02, 3.001499938964844e+02, 3.001499938964844e+02, 3.001499938964844e+02]
hex.hexReg[1].ele[1, 2].vol1.T=[2.931499938964844e+02, 2.819509582519531e+02, 2.799024047851562e+02, 2.813837585449219e+02, 2.840812683105469e+02, 2.863245849609375e+02, 2.882988586425781e+02, 2.90041259765625e+02, 2.915791320800781e+02, 2.914191589355469e+02, 2.855460815429688e+02, 2.828992004394531e+02, 2.829554443359375e+02, 2.837275695800781e+02, 2.842520141601562e+02, 2.848705444335938e+02, 2.848046264648438e+02, 2.843933410644531e+02, 2.81703125e+02, 2.807919006347656e+02, 2.806881713867188e+02, 2.806776123046875e+02, 2.807063598632812e+02, 2.811271667480469e+02, 2.81260498046875e+02, 2.811192932128906e+02, 2.809558715820312e+02, 2.808726196289062e+02, 2.809440002441406e+02, 2.810476989746094e+02, 2.810962219238281e+02, 2.810368957519531e+02, 2.809848937988281e+02, 2.809768676757812e+02, 2.809757995605469e+02, 2.809756774902344e+02, 2.809756469726562e+02, 2.809756469726562e+02, 2.809756469726562e+02, 2.809756469726562e+02, 2.809756469726562e+02, 2.809756469726562e+02, 2.809756469726562e+02, 2.809756469726562e+02, 2.809756469726562e+02, 2.809756469726562e+02, 2.809756469726562e+02, 2.809756469726562e+02, 2.809756469726562e+02, 2.809756469726562e+02, 2.809756469726562e+02, 2.815654602050781e+02, 2.824962768554688e+02, 2.831383666992188e+02, 2.834344482421875e+02, 2.835632019042969e+02, 2.836158752441406e+02, 2.837203063964844e+02, 2.843307189941406e+02, 2.851824645996094e+02, 2.859387512207031e+02, 2.864527893066406e+02, 2.873287048339844e+02, 2.880362243652344e+02, 2.885815734863281e+02, 2.895626525878906e+02, 2.904911193847656e+02, 2.91219970703125e+02, 2.881905517578125e+02, 2.850672302246094e+02, 2.84783935546875e+02, 2.854520874023438e+02, 2.859568786621094e+02, 2.862954406738281e+02, 2.86507568359375e+02, 2.866366577148438e+02, 2.867140502929688e+02, 2.867598571777344e+02, 2.867867431640625e+02, 2.865069885253906e+02, 2.862022399902344e+02, 2.864507751464844e+02, 2.866482849121094e+02, 2.867890319824219e+02, 2.874664916992188e+02, 2.889827270507812e+02, 2.902960510253906e+02, 2.909102783203125e+02, 2.910111389160156e+02, 2.91038330078125e+02, 2.910552368164062e+02, 2.910642395019531e+02, 2.910687561035156e+02, 2.910708923339844e+02, 2.910718994140625e+02, 2.910723571777344e+02, 2.910725402832031e+02, 2.910726318359375e+02, 2.910726623535156e+02, 2.910726928710938e+02, 2.910726928710938e+02]
hex.hexReg[1].ele[1, 2].vol2.T=[2.931499938964844e+02, 2.97599853515625e+02, 2.96131103515625e+02, 2.963038940429688e+02, 2.969181213378906e+02, 2.976330261230469e+02, 2.982791748046875e+02, 2.988498840332031e+02, 2.993536987304688e+02, 2.99645751953125e+02, 2.982103271484375e+02, 2.9702001953125e+02, 2.967824401855469e+02, 2.969870300292969e+02, 2.971647644042969e+02, 2.973581237792969e+02, 2.974074401855469e+02, 2.973566284179688e+02, 2.967159118652344e+02, 2.96339111328125e+02, 2.962833557128906e+02, 2.962769470214844e+02, 2.962771606445312e+02, 2.963572387695312e+02, 2.964063110351562e+02, 2.963936767578125e+02, 2.963525085449219e+02, 2.963252563476562e+02, 2.963330383300781e+02, 2.963544921875e+02, 2.963719177246094e+02, 2.963674926757812e+02, 2.963501892089844e+02, 2.963465270996094e+02, 2.963459777832031e+02, 2.963459167480469e+02, 2.963459167480469e+02, 2.963459167480469e+02, 2.963459167480469e+02, 2.963459167480469e+02, 2.963459167480469e+02, 2.963459167480469e+02, 2.963459167480469e+02, 2.963459167480469e+02, 2.963459167480469e+02, 2.963459167480469e+02, 2.963459167480469e+02, 2.963459167480469e+02, 2.963459167480469e+02, 2.963459167480469e+02, 2.963459167480469e+02, 2.964300537109375e+02, 2.966365356445312e+02, 2.968191223144531e+02, 2.969391174316406e+02, 2.969957580566406e+02, 2.970198669433594e+02, 2.970339660644531e+02, 2.9717431640625e+02, 2.974170532226562e+02, 2.976770629882812e+02, 2.978633117675781e+02, 2.980993041992188e+02, 2.9833837890625e+02, 2.985266723632812e+02, 2.987807922363281e+02, 2.990835876464844e+02, 2.993456726074219e+02, 2.988743896484375e+02, 2.977759094238281e+02, 2.973743286132812e+02, 2.975377197265625e+02, 2.9771142578125e+02, 2.978343200683594e+02, 2.979132995605469e+02, 2.979619750976562e+02, 2.979914245605469e+02, 2.98009033203125e+02, 2.980194396972656e+02, 2.979845581054688e+02, 2.978468627929688e+02, 2.978923645019531e+02, 2.979587707519531e+02, 2.980087585449219e+02, 2.960844421386719e+02, 2.964952697753906e+02, 2.969229431152344e+02, 2.972056579589844e+02, 2.972792053222656e+02, 2.972911682128906e+02, 2.972975463867188e+02, 2.973010559082031e+02, 2.973028259277344e+02, 2.973036804199219e+02, 2.973041076660156e+02, 2.973042907714844e+02, 2.973043518066406e+02, 2.973044128417969e+02, 2.973044128417969e+02, 2.973044128417969e+02, 2.97304443359375e+02]
hex.hexReg[1].ele[1, 1].Gc_2=[1.213007568359375e+03, 1.213007568359375e+03]
hex.hexReg[1].ele[1, 1].Gc_1=[2.42601513671875e+03, 2.42601513671875e+03]
hex.Q1_flow=[0e+00, 8.14618125e+04, 9.93516328125e+04, 7.331453125e+04, 5.60391015625e+04, 5.156155078125e+04, 4.87687265625e+04, 4.60748046875e+04, 4.343592578125e+04, 5.058160546875e+04, 5.90454765625e+04, 6.0586421875e+04, 5.5369015625e+04, 5.25888203125e+04, 5.179502343749999e+04, 5.02646953125e+04, 5.212531640625e+04, 5.508778125e+04, 7.28146171875e+04, 8.00164453125e+04, 8.36298828125e+04, 8.49651796875e+04, 8.46398984375e+04, 8.0431265625e+04, 7.8806015625e+04, 7.9212609375e+04, 8.03117890625e+04, 8.1297296875e+04, 8.09553828125e+04, 8.0108e+04, 7.95831796875e+04, 7.9917203125e+04, 8.02373359375e+04, 8.0436390625e+04, 8.0549e+04, 8.05915078125e+04, 8.06074140625e+04, 8.06101328125e+04, 8.0608796875e+04, 8.0607640625e+04, 8.06071328125e+04, 8.06069453125e+04, 8.0606875e+04, 8.0606859375e+04, 8.06068515625e+04, 8.06068515625e+04, 8.0606859375e+04, 8.0606859375e+04, 8.0606859375e+04, 8.0606859375e+04, 8.0606859375e+04, 7.5181515625e+04, 6.9278671875e+04, 6.61669453125e+04, 6.445731640624999e+04, 6.300084374999999e+04, 6.173901562499999e+04, 5.9987875e+04, 5.64848984375e+04, 5.312059375e+04, 5.103436328125e+04, 4.944282421875e+04, 4.619928515625e+04, 4.447809375e+04, 4.29043203125e+04, 3.948266796875e+04, 3.76420859375e+04, 3.646009375e+04, 4.659592578125e+04, 4.977304296875e+04, 4.396984765625e+04, 4.17200859375e+04, 4.1387078125e+04, 4.126131640625e+04, 4.12317109375e+04, 4.120916796875e+04, 4.117638671875e+04, 4.113096484375e+04, 4.107298046875e+04, 4.280263671875e+04, 4.240473828125e+04, 4.11666796875e+04, 4.095647265625e+04, 4.08180546875e+04, 2.6239326171875e+04, 2.2225822265625e+04, 2.117109375e+04, 2.332762890625e+04, 2.492029296875e+04, 2.508996484375e+04, 2.513418359375e+04, 2.5173705078125e+04, 2.5211470703125e+04, 2.52483359375e+04, 2.5283533203125e+04, 2.5315216796875e+04, 2.5342283203125e+04, 2.5363607421875e+04, 2.5379572265625e+04, 2.5390826171875e+04, 2.539837109375e+04]
hex.Q2_flow=[0e+00, -5.042080078125e+04, -6.78921953125e+04, -7.4020453125e+04, -6.6216484375e+04, -6.242017578125e+04, -5.90721484375e+04, -5.577269140625e+04, -5.2544515625e+04, -5.06847265625e+04, -5.154498828125e+04, -5.3360375e+04, -5.353748828125e+04, -5.297034375e+04, -5.275433984375e+04, -5.20711875e+04, -5.223484765625e+04, -5.270414453125e+04, -5.80015390625e+04, -6.58725234375e+04, -7.3194421875e+04, -7.8650953125e+04, -8.2012953125e+04, -8.17113203125e+04, -8.03060625e+04, -7.9482578125e+04, -7.97491015625e+04, -8.046478125e+04, -8.07702578125e+04, -8.05908046875e+04, -8.0097859375e+04, -7.9866640625e+04, -8.0047546875e+04, -8.02315234375e+04, -8.03782734375e+04, -8.04852109375e+04, -8.05550078125e+04, -8.0588390625e+04, -8.06008671875e+04, -8.06050546875e+04, -8.06063671875e+04, -8.06067578125e+04, -8.06068515625e+04, -8.06068671875e+04, -8.06068671875e+04, -8.06068671875e+04, -8.0606859375e+04, -8.0606859375e+04, -8.0606859375e+04, -8.0606859375e+04, -8.0606859375e+04, -7.86668515625e+04, -7.48669296875e+04, -7.1809125e+04, -6.944952343749999e+04, -6.726082031249999e+04, -6.527666796874999e+04, -6.34601640625e+04, -6.1144296875e+04, -5.85825078125e+04, -5.612570703125e+04, -5.40729609375e+04, -5.179576953125e+04, -4.96507421875e+04, -4.760946875e+04, -4.53408984375e+04, -4.317324609375e+04, -4.11168984375e+04, -4.109532421875e+04, -4.26291171875e+04, -4.28476640625e+04, -4.2162046875e+04, -4.183107421875e+04, -4.167339453125e+04, -4.162148828125e+04, -4.157488671875e+04, -4.1523578125e+04, -4.14623359375e+04, -4.138898828125e+04, -4.15658984375e+04, -4.2070078125e+04, -4.172705078125e+04, -4.15611953125e+04, -4.139295703125e+04, -2.803271875e+04, -2.68965e+04, -2.572033984375e+04, -2.5050052734375e+04, -2.4951736328125e+04, -2.4959611328125e+04, -2.4996427734375e+04, -2.5043654296875e+04, -2.50937734375e+04, -2.5144263671875e+04, -2.5193541015625e+04, -2.52397421875e+04, -2.528096484375e+04, -2.5315814453125e+04, -2.534375390625e+04, -2.53650390625e+04, -2.53805078125e+04]
hex.m2_flow=[5.25e+00, 5.25e+00]
hex.m1_flow=[2.820636749267578e+00, 4.579715251922607e+00, 3.550611972808838e+00, 2.884037792682648e-01, 4.921874733554432e-06, 4.921874733554432e-06, 4.921874733554432e-06, 4.21874983658199e-06, 2.109374918290996e-06, 1.370005011558533e+00, 1.710652351379395e+00, 1.506812453269958e+00, 8.306340575218201e-01, 8.306340575218201e-01, 6.766705513000488e-01, 6.766705513000488e-01, 8.523085117340088e-01, 1.434419274330139e+00, 2.672612428665161e+00, 2.672612428665161e+00, 2.672612428665161e+00, 2.672612428665161e+00, 2.43081521987915e+00, 2.077279567718506e+00, 2.077279567718506e+00, 2.356258630752563e+00, 2.466933965682983e+00, 2.466933965682983e+00, 2.346359252929688e+00, 2.229691028594971e+00, 2.229691028594971e+00, 2.34955358505249e+00, 2.34955358505249e+00, 2.34955358505249e+00, 2.34955358505249e+00, 2.34955358505249e+00, 2.34955358505249e+00, 2.34955358505249e+00, 2.34955358505249e+00, 2.34955358505249e+00, 2.34955358505249e+00, 2.34955358505249e+00, 2.34955358505249e+00, 2.34955358505249e+00, 2.34955358505249e+00, 2.34955358505249e+00, 2.34955358505249e+00, 2.34955358505249e+00, 2.34955358505249e+00, 2.34955358505249e+00, 2.34955358505249e+00, 1.401906371116638e+00, 1.037077784538269e+00, 1.037077784538269e+00, 1.037077784538269e+00, 1.037077784538269e+00, 1.037077784538269e+00, 8.599896430969238e-01, 6.832098364830017e-01, 5.165538191795349e-01, 5.165538191795349e-01, 4.995258152484894e-01, 3.50467324256897e-01, 3.50467324256897e-01, 3.50467324256897e-01, 1.824701875448227e-01, 1.824701875448227e-01, 4.109909236431122e-01, 1.249609708786011e+00, 1.249609708786011e+00, 5.598886013031006e-01, 5.598886013031006e-01, 5.598886013031006e-01, 5.598886013031006e-01, 5.598886013031006e-01, 5.598886013031006e-01, 5.598886013031006e-01, 5.598886013031006e-01, 5.598886013031006e-01, 7.185179591178894e-01, 5.40949821472168e-01, 5.40949821472168e-01, 5.40949821472168e-01, 5.40949821472168e-01, 1.406250021318556e-06, 1.406250021318556e-06, 1.406250021318556e-06, 7.091838717460632e-01, 8.871066570281982e-01, 8.871066570281982e-01, 8.871066570281982e-01, 8.871066570281982e-01, 8.871066570281982e-01, 8.871066570281982e-01, 8.871066570281982e-01, 8.871066570281982e-01, 8.871066570281982e-01, 8.871066570281982e-01, 8.871066570281982e-01, 8.871066570281982e-01, 8.871066570281982e-01]
con.u_m=[2.931499938964844e+02, 2.947239685058594e+02, 2.924067993164062e+02, 2.903378295898438e+02, 2.905311279296875e+02, 2.911392517089844e+02, 2.917851257324219e+02, 2.924232482910156e+02, 2.930470886230469e+02, 2.936135864257812e+02, 2.937711486816406e+02, 2.93635009765625e+02, 2.934154357910156e+02, 2.933674621582031e+02, 2.933655700683594e+02, 2.934153747558594e+02, 2.934512329101562e+02, 2.9343798828125e+02, 2.930187683105469e+02, 2.918812561035156e+02, 2.906414489746094e+02, 2.896295166015625e+02, 2.890058288574219e+02, 2.888225402832031e+02, 2.888992004394531e+02, 2.890093383789062e+02, 2.890498046875e+02, 2.890133361816406e+02, 2.88953857421875e+02, 2.889345092773438e+02, 2.889662475585938e+02, 2.890053405761719e+02, 2.890091247558594e+02, 2.889974365234375e+02, 2.889785461425781e+02, 2.889612731933594e+02, 2.8895068359375e+02, 2.889455261230469e+02, 2.889434204101562e+02, 2.889426879882812e+02, 2.889424438476562e+02, 2.889423522949219e+02, 2.889423522949219e+02, 2.889423522949219e+02, 2.889423522949219e+02, 2.889423522949219e+02, 2.889423522949219e+02, 2.889423522949219e+02, 2.889423522949219e+02, 2.889423522949219e+02, 2.889423522949219e+02, 2.890127563476562e+02, 2.893158264160156e+02, 2.897428283691406e+02, 2.901909484863281e+02, 2.9061865234375e+02, 2.910094299316406e+02, 2.913528442382812e+02, 2.916938171386719e+02, 2.920771484375e+02, 2.924879150390625e+02, 2.928838195800781e+02, 2.932840576171875e+02, 2.93698486328125e+02, 2.94094970703125e+02, 2.94488037109375e+02, 2.949034729003906e+02, 2.95305419921875e+02, 2.955945129394531e+02, 2.955089721679688e+02, 2.953052368164062e+02, 2.952828979492188e+02, 2.953006286621094e+02, 2.953136596679688e+02, 2.953238220214844e+02, 2.953334045410156e+02, 2.953437805175781e+02, 2.953560180664062e+02, 2.953705139160156e+02, 2.9537646484375e+02, 2.953090209960938e+02, 2.953030090332031e+02, 2.953302917480469e+02, 2.953630981445312e+02, 2.948628540039062e+02, 2.949695129394531e+02, 2.951947631835938e+02, 2.953922424316406e+02, 2.95464111328125e+02, 2.954676818847656e+02, 2.95460693359375e+02, 2.954514770507812e+02, 2.95441650390625e+02, 2.954317321777344e+02, 2.954220581054688e+02, 2.954129638671875e+02, 2.954048767089844e+02, 2.953980102539062e+02, 2.953925170898438e+02, 2.953883056640625e+02, 2.9538525390625e+02]
con.u_s=[2.931499938964844e+02, 2.931499938964844e+02, 2.931499938964844e+02, 2.931499938964844e+02, 2.931499938964844e+02, 2.931499938964844e+02, 2.931499938964844e+02, 2.931499938964844e+02, 2.931499938964844e+02, 2.931499938964844e+02, 2.931499938964844e+02, 2.931499938964844e+02, 2.931499938964844e+02, 2.931499938964844e+02, 2.931499938964844e+02, 2.931499938964844e+02, 2.931499938964844e+02, 2.881499938964844e+02, 2.881499938964844e+02, 2.881499938964844e+02, 2.881499938964844e+02, 2.881499938964844e+02, 2.881499938964844e+02, 2.881499938964844e+02, 2.881499938964844e+02, 2.881499938964844e+02, 2.881499938964844e+02, 2.881499938964844e+02, 2.881499938964844e+02, 2.881499938964844e+02, 2.881499938964844e+02, 2.881499938964844e+02, 2.881499938964844e+02, 2.881499938964844e+02, 2.881499938964844e+02, 2.881499938964844e+02, 2.881499938964844e+02, 2.881499938964844e+02, 2.881499938964844e+02, 2.881499938964844e+02, 2.881499938964844e+02, 2.881499938964844e+02, 2.881499938964844e+02, 2.881499938964844e+02, 2.881499938964844e+02, 2.881499938964844e+02, 2.881499938964844e+02, 2.881499938964844e+02, 2.881499938964844e+02, 2.881499938964844e+02, 2.881499938964844e+02, 2.885700073242188e+02, 2.88989990234375e+02, 2.894100036621094e+02, 2.898299865722656e+02, 2.9025e+02, 2.906700134277344e+02, 2.910899963378906e+02, 2.91510009765625e+02, 2.919299926757812e+02, 2.923500061035156e+02, 2.927699890136719e+02, 2.931900024414062e+02, 2.936099853515625e+02, 2.940299987792969e+02, 2.944500122070312e+02, 2.948699951171875e+02, 2.951499938964844e+02, 2.951499938964844e+02, 2.951499938964844e+02, 2.951499938964844e+02, 2.951499938964844e+02, 2.951499938964844e+02, 2.951499938964844e+02, 2.951499938964844e+02, 2.951499938964844e+02, 2.951499938964844e+02, 2.951499938964844e+02, 2.951499938964844e+02, 2.951499938964844e+02, 2.951499938964844e+02, 2.951499938964844e+02, 2.951499938964844e+02, 2.951499938964844e+02, 2.951499938964844e+02, 2.951499938964844e+02, 2.951499938964844e+02, 2.951499938964844e+02, 2.951499938964844e+02, 2.951499938964844e+02, 2.951499938964844e+02, 2.951499938964844e+02, 2.951499938964844e+02, 2.951499938964844e+02, 2.951499938964844e+02, 2.951499938964844e+02, 2.951499938964844e+02, 2.951499938964844e+02, 2.951499938964844e+02, 2.951499938964844e+02, 2.951499938964844e+02]
