last-generated=2017-11-21
statistics-initialization=
{
  "numerical Jacobians": "0", 
  "nonlinear": "1"
}
statistics-simulation=
{
  "numerical Jacobians": "0", 
  "nonlinear": " ", 
  "number of continuous time states": "27", 
  "linear": " "
}
tan.vol[1].T=[2.931499938964844e+02, 2.931499938964844e+02, 2.931499938964844e+02, 2.931499938964844e+02, 2.931499938964844e+02, 2.931499938964844e+02, 2.931499938964844e+02, 2.931499938964844e+02, 2.931499938964844e+02, 2.931499938964844e+02, 2.931499938964844e+02, 2.931500244140625e+02, 2.931500244140625e+02, 2.931500244140625e+02, 2.931500244140625e+02, 2.931500244140625e+02, 2.931500244140625e+02, 2.931500244140625e+02, 2.931500549316406e+02, 2.931500549316406e+02, 2.931500549316406e+02, 2.931500549316406e+02, 2.931500854492188e+02, 2.931500854492188e+02, 2.931500854492188e+02, 2.931500854492188e+02, 2.931500854492188e+02, 2.931501159667969e+02, 2.931501159667969e+02, 2.931501159667969e+02, 2.931501159667969e+02, 2.931501159667969e+02, 2.931501159667969e+02, 2.931500244140625e+02, 2.931498718261719e+02, 2.93149658203125e+02, 2.931494140625e+02, 2.931492309570312e+02, 2.932360534667969e+02, 2.934271240234375e+02, 2.936940002441406e+02, 2.940329895019531e+02, 2.944379272460938e+02, 2.9490087890625e+02, 2.954132385253906e+02, 2.959644470214844e+02, 2.965372009277344e+02, 2.971168212890625e+02, 2.977006530761719e+02, 2.982890625e+02, 2.988836059570312e+02, 2.994843444824219e+02, 3.00090576171875e+02, 3.007013854980469e+02, 3.013156433105469e+02, 3.019322204589844e+02, 3.025495910644531e+02, 3.031659851074219e+02, 3.037824096679688e+02, 3.044031677246094e+02, 3.050294189453125e+02, 3.056555480957031e+02, 3.06266845703125e+02, 3.068414916992188e+02, 3.073539123535156e+02, 3.077900085449219e+02, 3.081402282714844e+02, 3.083743591308594e+02, 3.084183044433594e+02, 3.08409912109375e+02, 3.084014587402344e+02, 3.083929443359375e+02, 3.083843383789062e+02, 3.083757019042969e+02, 3.083670043945312e+02, 3.083582763671875e+02, 3.083494567871094e+02, 3.083406066894531e+02, 3.083316955566406e+02, 3.083227233886719e+02, 3.083136901855469e+02, 3.083045959472656e+02, 3.082954711914062e+02, 3.082862854003906e+02, 3.082770690917969e+02, 3.082677612304688e+02, 3.082584228515625e+02, 3.082490539550781e+02, 3.082395935058594e+02, 3.082301025390625e+02, 3.082205505371094e+02, 3.082109680175781e+02, 3.082013244628906e+02, 3.081916198730469e+02, 3.08181884765625e+02, 3.081720886230469e+02, 3.081622619628906e+02, 3.081523742675781e+02, 3.081424255371094e+02, 3.081324462890625e+02, 3.081224365234375e+02]
solCol.vol[9].T=[2.931499938964844e+02, 2.909994506835938e+02, 2.892102355957031e+02, 2.877216491699219e+02, 2.864831237792969e+02, 2.854526672363281e+02, 2.845953674316406e+02, 2.838821105957031e+02, 2.832886657714844e+02, 2.827940368652344e+02, 2.823716430664062e+02, 2.819984741210938e+02, 2.816617431640625e+02, 2.813570251464844e+02, 2.810812683105469e+02, 2.808283386230469e+02, 2.805930786132812e+02, 2.803710327148438e+02, 2.801419982910156e+02, 2.79876708984375e+02, 2.795720825195312e+02, 2.792493591308594e+02, 2.789425964355469e+02, 2.786740112304688e+02, 2.784556274414062e+02, 2.782919311523438e+02, 2.78189453125e+02, 2.781724548339844e+02, 2.782436828613281e+02, 2.783788452148438e+02, 2.78548095703125e+02, 2.787841796875e+02, 2.793065185546875e+02, 2.807712707519531e+02, 2.83458984375e+02, 2.877584838867188e+02, 2.936190795898438e+02, 3.003251037597656e+02, 3.064369201660156e+02, 3.118125610351562e+02, 3.1677587890625e+02, 3.214699401855469e+02, 3.255930786132812e+02, 3.292036437988281e+02, 3.322420959472656e+02, 3.346045837402344e+02, 3.356740417480469e+02, 3.364847106933594e+02, 3.372201843261719e+02, 3.380656433105469e+02, 3.389580688476562e+02, 3.398298645019531e+02, 3.406568603515625e+02, 3.414313659667969e+02, 3.421489562988281e+02, 3.42796142578125e+02, 3.433508911132812e+02, 3.438353271484375e+02, 3.445265502929688e+02, 3.454161987304688e+02, 3.462028503417969e+02, 3.464475708007812e+02, 3.456038818359375e+02, 3.434540100097656e+02, 3.39782958984375e+02, 3.357163696289062e+02, 3.301760864257812e+02, 3.222041320800781e+02, 3.170888061523437e+02, 3.120320739746094e+02, 3.074723815917969e+02, 3.035860900878906e+02, 3.003315734863281e+02, 2.976266479492188e+02, 2.953836975097656e+02, 2.935180053710938e+02, 2.919512634277344e+02, 2.906270751953125e+02, 2.895034790039062e+02, 2.885482788085938e+02, 2.877386169433594e+02, 2.870629577636719e+02, 2.865066223144531e+02, 2.860476989746094e+02, 2.8565576171875e+02, 2.852774963378906e+02, 2.848772888183594e+02, 2.84458251953125e+02, 2.840560302734375e+02, 2.837255249023438e+02, 2.834929809570312e+02, 2.833399047851562e+02, 2.832106323242188e+02, 2.830517578125e+02, 2.828534545898438e+02, 2.826184997558594e+02, 2.823573913574219e+02, 2.820839538574219e+02, 2.818068237304688e+02, 2.815325012207031e+02, 2.81266357421875e+02]
TIn.T=[2.931499938964844e+02, 2.931499938964844e+02, 2.931499938964844e+02, 2.931499938964844e+02, 2.931499938964844e+02, 2.931499938964844e+02, 2.931499938964844e+02, 2.931499938964844e+02, 2.931499938964844e+02, 2.931499938964844e+02, 2.931499938964844e+02, 2.931499938964844e+02, 2.931499938964844e+02, 2.931499938964844e+02, 2.931499938964844e+02, 2.931499938964844e+02, 2.931499938964844e+02, 2.931499938964844e+02, 2.931499938964844e+02, 2.931499938964844e+02, 2.931499938964844e+02, 2.931499938964844e+02, 2.931499938964844e+02, 2.931499938964844e+02, 2.931499938964844e+02, 2.931499938964844e+02, 2.931499938964844e+02, 2.931499938964844e+02, 2.931499938964844e+02, 2.931499938964844e+02, 2.931499938964844e+02, 2.931499938964844e+02, 2.798575439453125e+02, 2.812545471191406e+02, 2.838162231445312e+02, 2.879219665527344e+02, 2.934434204101562e+02, 2.977407836914062e+02, 3.012612915039062e+02, 3.041965026855469e+02, 3.068153686523438e+02, 3.092378845214844e+02, 3.1134619140625e+02, 3.131949462890625e+02, 3.147763671875e+02, 3.16058837890625e+02, 3.167856750488281e+02, 3.174002685546875e+02, 3.179842224121094e+02, 3.186170043945312e+02, 3.192727661132812e+02, 3.199226989746094e+02, 3.20556396484375e+02, 3.211705017089844e+02, 3.217629089355469e+02, 3.223278503417969e+02, 3.228558044433594e+02, 3.233547058105469e+02, 3.239384765625e+02, 3.246065368652344e+02, 3.252365112304688e+02, 3.256487731933594e+02, 3.2561328125e+02, 3.250200500488281e+02, 3.237332763671875e+02, 3.221903076171875e+02, 3.198782043457031e+02, 3.16184814453125e+02, 3.139351806640625e+02, 3.139351806640625e+02, 3.139351806640625e+02, 3.139351806640625e+02, 3.139351806640625e+02, 3.139351806640625e+02, 3.139351806640625e+02, 3.139351806640625e+02, 3.139351806640625e+02, 3.139351806640625e+02, 3.139351806640625e+02, 3.139351806640625e+02, 3.139351806640625e+02, 3.139351806640625e+02, 3.139351806640625e+02, 3.139351806640625e+02, 3.139351806640625e+02, 3.139351806640625e+02, 3.139351806640625e+02, 3.139351806640625e+02, 3.139351806640625e+02, 3.139351806640625e+02, 3.139351806640625e+02, 3.139351806640625e+02, 3.139351806640625e+02, 3.139351806640625e+02, 3.139351806640625e+02, 3.139351806640625e+02, 3.139351806640625e+02, 3.139351806640625e+02, 3.139351806640625e+02, 3.139351806640625e+02, 3.139351806640625e+02]
time=[0e+00, 8.64e+04]
pumCon.y=[0e+00, 0e+00, 0e+00, 0e+00, 0e+00, 0e+00, 0e+00, 0e+00, 0e+00, 0e+00, 0e+00, 0e+00, 0e+00, 0e+00, 0e+00, 0e+00, 0e+00, 0e+00, 0e+00, 0e+00, 0e+00, 0e+00, 0e+00, 0e+00, 0e+00, 0e+00, 0e+00, 0e+00, 0e+00, 0e+00, 0e+00, 0e+00, 1e+00, 1e+00, 1e+00, 1e+00, 1e+00, 1e+00, 1e+00, 1e+00, 1e+00, 1e+00, 1e+00, 1e+00, 1e+00, 1e+00, 1e+00, 1e+00, 1e+00, 1e+00, 1e+00, 1e+00, 1e+00, 1e+00, 1e+00, 1e+00, 1e+00, 1e+00, 1e+00, 1e+00, 1e+00, 1e+00, 1e+00, 1e+00, 1e+00, 1e+00, 1e+00, 1e+00, 0e+00, 0e+00, 0e+00, 0e+00, 0e+00, 0e+00, 0e+00, 0e+00, 0e+00, 0e+00, 0e+00, 0e+00, 0e+00, 0e+00, 0e+00, 0e+00, 0e+00, 0e+00, 0e+00, 0e+00, 0e+00, 0e+00, 0e+00, 0e+00, 0e+00, 0e+00, 0e+00, 0e+00, 0e+00, 0e+00, 0e+00, 0e+00, 0e+00]
