last-generated=2017-11-12
statistics-initialization=
{
  "numerical Jacobians": "0", 
  "nonlinear": "1"
}
statistics-simulation=
{
  "numerical Jacobians": "0", 
  "nonlinear": "0", 
  "number of continuous time states": "18", 
  "linear": "0"
}
hex.QLat2_flow=[0e+00, -2.098685302734375e+03, -2.098994873046875e+03, -2.09899560546875e+03, -2.098995361328125e+03, -2.098995361328125e+03, -2.098995361328125e+03, -2.098995361328125e+03, -2.098995361328125e+03, -2.098995361328125e+03, -2.098995361328125e+03, -1.97084423828125e+03, -1.825814331054688e+03, -1.664005859375e+03, -1.4829150390625e+03, -1.279582763671875e+03, -1.050468994140625e+03, -7.912107543945312e+02, -4.959508361816406e+02, -1.815044097900391e+02, 0e+00, 0e+00, 0e+00, 0e+00, 0e+00, 0e+00, 0e+00, 0e+00, 0e+00, 0e+00, 0e+00, 0e+00, 0e+00, 0e+00, 0e+00, 0e+00, 0e+00, 0e+00, 0e+00, 0e+00, 0e+00, 0e+00, 0e+00, 0e+00, 0e+00, 0e+00, 0e+00, 0e+00, 0e+00, 0e+00, 0e+00, 0e+00, 0e+00, 0e+00, -2.005728721618847e+00, -1.835180664062487e+01, 0e+00, 0e+00, 0e+00, 0e+00, 0e+00, 0e+00, 0e+00, 0e+00, 0e+00, 0e+00, 0e+00, 0e+00, 0e+00, 0e+00, 0e+00, 0e+00, 0e+00, 0e+00, 0e+00, 0e+00, 0e+00, -8.479745984077454e-01, -2.874659061431885e+00, -3.85051155090332e+00, -4.272049427032471e+00, -4.383476257324219e+00, -4.323328495025635e+00, -4.168140411376953e+00, -3.963367938995361e+00, -3.737682342529297e+00, -3.507412195205688e+00, -4.554695129394531e+00, -5.319596290588379e+00, -5.644732475280762e+00, -5.723199367523193e+00, -5.660752296447754e+00, -5.517632961273193e+00, -5.329239845275879e+00, -5.116263866424561e+00, -4.891851902008057e+00, -4.664390563964844e+00, -5.085463047027588e+00, -5.82282018661499e+00, -6.148534297943115e+00, -6.246139049530029e+00]
hex.Q2_flow=[0e+00, -3.357237060546875e+03, -3.357767333984375e+03, -3.3577685546875e+03, -3.357768310546875e+03, -3.357768310546875e+03, -3.357768310546875e+03, -3.357768310546875e+03, -3.357768310546875e+03, -3.357768310546875e+03, -3.357768310546875e+03, -3.168929443359375e+03, -2.95691552734375e+03, -2.7232236328125e+03, -2.46500927734375e+03, -2.178970703125e+03, -1.8612109375e+03, -1.506968017578125e+03, -1.109796752929688e+03, -6.705416259765625e+02, -3.106672973632812e+02, -2.653861999511719e+02, -2.344584197998047e+02, -2.091910705566406e+02, -1.885671081542969e+02, -1.717531433105469e+02, -1.580615997314453e+02, -1.469261627197265e+02, -1.378809509277343e+02, -1.305425109863281e+02, -1.245958404541016e+02, -1.197823257446289e+02, -1.158906402587891e+02, -1.127478637695312e+02, -1.102123718261719e+02, -1.081687622070312e+02, -1.065231857299805e+02, -1.051992874145508e+02, -1.041350326538086e+02, -1.032801208496094e+02, -1.02593864440918e+02, -1.020433654785156e+02, -1.016021270751953e+02, -1.012488555908203e+02, -1.009661026000977e+02, -1.007395858764648e+02, -1.005583114624023e+02, -1.004132385253906e+02, -1.002971115112305e+02, -1.002042846679688e+02, -1.00129997253418e+02, -9.628464508056641e+01, -9.185540008544922e+01, -8.459843444824219e+01, -7.10967941284179e+01, -4.790125274658208e+01, -6.072260665893572e+01, -9.31927490234375e+01, -1.063808517456055e+02, -1.11715446472168e+02, -1.137833023071289e+02, -1.072047882080078e+02, -1.02988525390625e+02, -9.891799926757812e+01, -9.474620819091797e+01, -9.014741516113281e+01, -8.46339111328125e+01, -7.740570831298828e+01, -6.699584197998047e+01, -5.004901504516602e+01, -3.208780288696289e+01, -2.829523086547852e+01, -2.501419830322266e+01, -2.276480865478516e+01, -2.1202392578125e+01, -2.008987426757812e+01, -1.927111625671387e+01, -1.936482429504395e+01, -2.010286331176758e+01, -2.035625267028809e+01, -2.034379196166992e+01, -2.014639282226562e+01, -1.982208633422852e+01, -1.941048812866211e+01, -1.894001579284668e+01, -1.843130683898926e+01, -1.789902877807617e+01, -1.826605796813965e+01, -1.835028266906738e+01, -1.82096004486084e+01, -1.791963958740234e+01, -1.752897262573242e+01, -1.707181739807129e+01, -1.657237243652344e+01, -1.604782676696777e+01, -1.551060009002686e+01, -1.496734428405762e+01, -1.493306446075439e+01, -1.500292301177979e+01, -1.487347602844238e+01, -1.462802505493164e+01]
time=[0e+00, 3.6e+03]
hex.port_b2.m_flow=[-1.400000005960464e-01, -1.400000005960464e-01, -1.400000005960464e-01, -1.400000005960464e-01, -1.400000005960464e-01, -1.400000005960464e-01, -1.400000005960464e-01, -1.400000005960464e-01, -1.400000005960464e-01, -1.400000005960464e-01, -1.400000005960464e-01, -1.400000005960464e-01, -1.400000005960464e-01, -1.400000005960464e-01, -1.400000005960464e-01, -1.400000005960464e-01, -1.400000005960464e-01, -1.400000005960464e-01, -1.400000005960464e-01, -1.400000005960464e-01, -1.400000005960464e-01, -1.400000005960464e-01, -1.400000005960464e-01, -1.400000005960464e-01, -1.400000005960464e-01, -1.400000005960464e-01, -1.400000005960464e-01, -1.400000005960464e-01, -1.400000005960464e-01, -1.400000005960464e-01, -1.400000005960464e-01, -1.400000005960464e-01, -1.400000005960464e-01, -1.400000005960464e-01, -1.400000005960464e-01, -1.400000005960464e-01, -1.400000005960464e-01, -1.400000005960464e-01, -1.400000005960464e-01, -1.400000005960464e-01, -1.400000005960464e-01, -1.400000005960464e-01, -1.400000005960464e-01, -1.400000005960464e-01, -1.400000005960464e-01, -1.400000005960464e-01, -1.400000005960464e-01, -1.400000005960464e-01, -1.400000005960464e-01, -1.400000005960464e-01, -1.400000005960464e-01, -1.120000034570694e-01, -8.399999886751175e-02, -5.60000017285347e-02, -2.800000086426717e-02, 4.255373436036178e-16, 2.800000086426753e-02, 5.60000017285347e-02, 8.399999886751175e-02, 1.120000034570694e-01, 1.400000005960464e-01, 1.260000020265579e-01, 1.120000034570694e-01, 9.799999743700027e-02, 8.399999886751175e-02, 7.000000029802322e-02, 5.60000017285347e-02, 4.199999943375587e-02, 2.800000086426735e-02, 1.400000043213367e-02, 0e+00, 0e+00, 0e+00, 0e+00, 0e+00, 0e+00, 0e+00, 0e+00, 0e+00, 0e+00, 0e+00, 0e+00, 0e+00, 0e+00, 0e+00, 0e+00, 0e+00, 0e+00, 0e+00, 0e+00, 0e+00, 0e+00, 0e+00, 0e+00, 0e+00, 0e+00, 0e+00, 0e+00, 0e+00, 0e+00, -0e+00]
hex.port_a2.m_flow=[-1.43245414445034e-13, 1.400000005960464e-01, 1.400000005960464e-01, 1.400000005960464e-01, 1.400000005960464e-01, 1.400000005960464e-01, 1.400000005960464e-01, 1.400000005960464e-01, 1.400000005960464e-01, 1.400000005960464e-01, 1.400000005960464e-01, 1.400000005960464e-01, 1.400000005960464e-01, 1.400000005960464e-01, 1.400000005960464e-01, 1.400000005960464e-01, 1.400000005960464e-01, 1.400000005960464e-01, 1.400000005960464e-01, 1.400000005960464e-01, 1.400000005960464e-01, 1.400000005960464e-01, 1.400000005960464e-01, 1.400000005960464e-01, 1.400000005960464e-01, 1.400000005960464e-01, 1.400000005960464e-01, 1.400000005960464e-01, 1.400000005960464e-01, 1.400000005960464e-01, 1.400000005960464e-01, 1.400000005960464e-01, 1.400000005960464e-01, 1.400000005960464e-01, 1.400000005960464e-01, 1.400000005960464e-01, 1.400000005960464e-01, 1.400000005960464e-01, 1.400000005960464e-01, 1.400000005960464e-01, 1.400000005960464e-01, 1.400000005960464e-01, 1.400000005960464e-01, 1.400000005960464e-01, 1.400000005960464e-01, 1.400000005960464e-01, 1.400000005960464e-01, 1.400000005960464e-01, 1.400000005960464e-01, 1.400000005960464e-01, 1.400000005960464e-01, 1.120196580886841e-01, 8.401474356651306e-02, 5.600982904434204e-02, 2.800508216023427e-02, 8.734678543128734e-07, -2.79953423887493e-02, -5.59900589287281e-02, -8.398517966270447e-02, -1.119804158806801e-01, -1.399754136800766e-01, -1.260110586881638e-01, -1.120098307728767e-01, -9.800859540700912e-02, -8.400736749172211e-02, -7.000613957643509e-02, -5.600491538643837e-02, -4.200368374586105e-02, -2.800245769321918e-02, -1.402722112834454e-02, -4.358233240964182e-07, 1.43245414445034e-13, -1.43245414445034e-13, 1.43245414445034e-13, -1.43245414445034e-13, 1.43245414445034e-13, -1.43245414445034e-13, -1.43245414445034e-13, -1.43245414445034e-13, 2.86490828890068e-13, -2.86490828890068e-13, -1.43245414445034e-13, 1.43245414445034e-13, 1.43245414445034e-13, 1.43245414445034e-13, -1.43245414445034e-13, 1.43245414445034e-13, -1.43245414445034e-13, -1.43245414445034e-13, -1.43245414445034e-13, -1.43245414445034e-13, 1.43245414445034e-13, 2.86490828890068e-13, -4.297362433351021e-13, -2.86490828890068e-13, 1.43245414445034e-13, 1.43245414445034e-13, -1.43245414445034e-13, -1.43245414445034e-13, 2.86490828890068e-13, -1.43245414445034e-13]
