last-generated=2017-11-12
statistics-initialization=
{
  "numerical Jacobians": "0", 
  "nonlinear": "1"
}
statistics-simulation=
{
  "numerical Jacobians": "0", 
  "nonlinear": "0", 
  "number of continuous time states": "18", 
  "linear": "0"
}
hex.sta_b1.T=[2.931499938964844e+02, 2.828124084472656e+02, 2.827708435058594e+02, 2.827707824707031e+02, 2.827707824707031e+02, 2.827707824707031e+02, 2.827707824707031e+02, 2.827707824707031e+02, 2.827707824707031e+02, 2.827707824707031e+02, 2.827707824707031e+02, 2.830437927246094e+02, 2.834364318847656e+02, 2.838954162597656e+02, 2.844375305175781e+02, 2.850852661132812e+02, 2.858678894042969e+02, 2.868207092285156e+02, 2.879741821289062e+02, 2.892956237792969e+02, 2.906906433105469e+02, 2.924283142089844e+02, 2.939174499511719e+02, 2.951922912597656e+02, 2.962822265625e+02, 2.972120971679688e+02, 2.980032043457031e+02, 2.986741638183594e+02, 2.992412109375e+02, 2.997187194824219e+02, 3.001192932128906e+02, 3.004541625976562e+02, 3.007330627441406e+02, 3.009645690917969e+02, 3.011560974121094e+02, 3.013140563964844e+02, 3.014439697265625e+02, 3.01550537109375e+02, 3.016377258300781e+02, 3.017088623046875e+02, 3.017668151855469e+02, 3.018139343261719e+02, 3.018521728515625e+02, 3.018831481933594e+02, 3.019081726074219e+02, 3.019284057617188e+02, 3.019447021484375e+02, 3.019578552246094e+02, 3.019684143066406e+02, 3.019768981933594e+02, 3.019837341308594e+02, 3.019876708984375e+02, 3.019843444824219e+02, 3.019701538085938e+02, 3.019367980957031e+02, 3.018583984375e+02, 3.016953125e+02, 3.013332214355469e+02, 3.011083984375e+02, 3.010244140625e+02, 3.010157775878906e+02, 3.010384216308594e+02, 3.010565185546875e+02, 3.010653686523438e+02, 3.010613098144531e+02, 3.010403442382812e+02, 3.009979248046875e+02, 3.009284362792969e+02, 3.008251953125e+02, 3.006827697753906e+02, 3.005042419433594e+02, 3.003069152832031e+02, 3.000957336425781e+02, 2.998657531738281e+02, 2.99613525390625e+02, 2.993369445800781e+02, 2.990352172851562e+02, 2.987083129882812e+02, 2.983570861816406e+02, 2.979827880859375e+02, 2.97587158203125e+02, 2.971722106933594e+02, 2.967401733398438e+02, 2.962932739257812e+02, 2.958339233398438e+02, 2.953643798828125e+02, 2.948869934082031e+02, 2.944039306640625e+02, 2.939172058105469e+02, 2.934288635253906e+02, 2.929406433105469e+02, 2.924542236328125e+02, 2.919711303710938e+02, 2.914927368164062e+02, 2.91020263671875e+02, 2.905547790527344e+02, 2.900972595214844e+02, 2.896484680175781e+02, 2.892091674804688e+02, 2.887798767089844e+02, 2.883611450195312e+02]
hex.sta_a1.T=[2.781499938964844e+02, 2.781499938964844e+02, 2.781499938964844e+02, 2.781499938964844e+02, 2.781499938964844e+02, 2.781499938964844e+02, 2.781499938964844e+02, 2.781499938964844e+02, 2.781499938964844e+02, 2.781499938964844e+02, 2.781499938964844e+02, 2.781499938964844e+02, 2.781499938964844e+02, 2.781499938964844e+02, 2.781499938964844e+02, 2.781499938964844e+02, 2.781499938964844e+02, 2.781499938964844e+02, 2.781499938964844e+02, 2.781499938964844e+02, 2.781499938964844e+02, 2.781499938964844e+02, 2.781499938964844e+02, 2.781499938964844e+02, 2.781499938964844e+02, 2.781499938964844e+02, 2.781499938964844e+02, 2.781499938964844e+02, 2.781499938964844e+02, 2.781499938964844e+02, 2.781499938964844e+02, 2.781499938964844e+02, 2.781499938964844e+02, 2.781499938964844e+02, 2.781499938964844e+02, 2.781499938964844e+02, 2.781499938964844e+02, 2.781499938964844e+02, 2.781499938964844e+02, 2.781499938964844e+02, 2.781499938964844e+02, 2.781499938964844e+02, 2.781499938964844e+02, 2.781499938964844e+02, 2.781499938964844e+02, 2.781499938964844e+02, 2.781499938964844e+02, 2.781499938964844e+02, 2.781499938964844e+02, 2.781499938964844e+02, 2.781499938964844e+02, 2.781499938964844e+02, 2.781499938964844e+02, 2.781499938964844e+02, 2.781499938964844e+02, 2.781499938964844e+02, 2.781499938964844e+02, 2.781499938964844e+02, 2.781499938964844e+02, 2.781499938964844e+02, 2.781499938964844e+02, 2.781499938964844e+02, 2.781499938964844e+02, 2.781499938964844e+02, 2.781499938964844e+02, 2.781499938964844e+02, 2.781499938964844e+02, 2.781499938964844e+02, 2.781499938964844e+02, 2.781499938964844e+02, 2.781499938964844e+02, 2.781499938964844e+02, 2.781499938964844e+02, 2.781499938964844e+02, 2.781499938964844e+02, 2.781499938964844e+02, 2.781499938964844e+02, 2.781499938964844e+02, 2.781499938964844e+02, 2.781499938964844e+02, 2.781499938964844e+02, 2.781499938964844e+02, 2.781499938964844e+02, 2.781499938964844e+02, 2.781499938964844e+02, 2.781499938964844e+02, 2.781499938964844e+02, 2.781499938964844e+02, 2.781499938964844e+02, 2.781499938964844e+02, 2.781499938964844e+02, 2.781499938964844e+02, 2.781499938964844e+02, 2.781499938964844e+02, 2.781499938964844e+02, 2.781499938964844e+02, 2.781499938964844e+02, 2.781499938964844e+02, 2.781499938964844e+02, 2.781499938964844e+02, 2.781499938964844e+02]
time=[0e+00, 3.6e+03]
hex.Q2_flow=[0e+00, -1.933302368164062e+03, -1.9333349609375e+03, -1.9333349609375e+03, -1.9333349609375e+03, -1.9333349609375e+03, -1.9333349609375e+03, -1.9333349609375e+03, -1.9333349609375e+03, -1.9333349609375e+03, -1.9333349609375e+03, -1.877822509765625e+03, -1.81272314453125e+03, -1.736135986328125e+03, -1.644755615234375e+03, -1.533902709960938e+03, -1.396701904296875e+03, -1.222645874023438e+03, -9.945202026367188e+02, -6.7957275390625e+02, -3.30002197265625e+02, -2.800218505859375e+02, -2.462850646972656e+02, -2.187394866943359e+02, -1.962699127197266e+02, -1.779618835449219e+02, -1.630621490478516e+02, -1.509506683349609e+02, -1.411173248291015e+02, -1.331430816650391e+02, -1.26684211730957e+02, -1.214587783813477e+02, -1.172357635498047e+02, -1.138263549804688e+02, -1.110766067504883e+02, -1.088610610961914e+02, -1.070775299072266e+02, -1.056429748535156e+02, -1.044900054931641e+02, -1.035640335083008e+02, -1.028208847045898e+02, -1.022248382568359e+02, -1.017470474243164e+02, -1.013642578125e+02, -1.01057731628418e+02, -1.008124923706055e+02, -1.006165084838867e+02, -1.004599914550781e+02, -1.003347091674805e+02, -1.002347640991211e+02, -1.001546859741211e+02, -9.630335998535156e+01, -9.186949157714844e+01, -8.460859680175781e+01, -6.934925842285139e+01, -3.506030654907249e+01, -5.969752120971699e+01, -9.459307098388672e+01, -1.07677375793457e+02, -1.128905029296875e+02, -1.148111801147461e+02, -1.080350189208984e+02, -1.036678466796875e+02, -9.947127532958984e+01, -9.519405364990234e+01, -9.050675964355469e+01, -8.491829681396484e+01, -7.762528228759766e+01, -6.715663909912109e+01, -5.015022659301758e+01, -3.213942337036133e+01, -2.832711029052734e+01, -2.503202629089355e+01, -2.277340316772461e+01, -2.120494842529297e+01, -2.00884952545166e+01, -1.926721382141113e+01, -1.86348762512207e+01, -1.81208553314209e+01, -1.767879104614258e+01, -1.727858352661133e+01, -1.690021133422852e+01, -1.653067970275879e+01, -1.616226196289062e+01, -1.579075050354004e+01, -1.541408729553223e+01, -1.503137111663818e+01, -1.464254570007324e+01, -1.424820899963379e+01, -1.384939098358154e+01, -1.344733333587646e+01, -1.304332637786865e+01, -1.263871479034424e+01, -1.223482513427734e+01, -1.183280086517334e+01, -1.143356227874756e+01, -1.103824615478516e+01, -1.06478796005249e+01, -1.026330280303955e+01, -9.885337829589844e+00, -9.514681816101074e+00]
hex.port_b2.m_flow=[-1.400000005960464e-01, -1.400000005960464e-01, -1.400000005960464e-01, -1.400000005960464e-01, -1.400000005960464e-01, -1.400000005960464e-01, -1.400000005960464e-01, -1.400000005960464e-01, -1.400000005960464e-01, -1.400000005960464e-01, -1.400000005960464e-01, -1.400000005960464e-01, -1.400000005960464e-01, -1.400000005960464e-01, -1.400000005960464e-01, -1.400000005960464e-01, -1.400000005960464e-01, -1.400000005960464e-01, -1.400000005960464e-01, -1.400000005960464e-01, -1.400000005960464e-01, -1.400000005960464e-01, -1.400000005960464e-01, -1.400000005960464e-01, -1.400000005960464e-01, -1.400000005960464e-01, -1.400000005960464e-01, -1.400000005960464e-01, -1.400000005960464e-01, -1.400000005960464e-01, -1.400000005960464e-01, -1.400000005960464e-01, -1.400000005960464e-01, -1.400000005960464e-01, -1.400000005960464e-01, -1.400000005960464e-01, -1.400000005960464e-01, -1.400000005960464e-01, -1.400000005960464e-01, -1.400000005960464e-01, -1.400000005960464e-01, -1.400000005960464e-01, -1.400000005960464e-01, -1.400000005960464e-01, -1.400000005960464e-01, -1.400000005960464e-01, -1.400000005960464e-01, -1.400000005960464e-01, -1.400000005960464e-01, -1.400000005960464e-01, -1.400000005960464e-01, -1.120000034570694e-01, -8.399999886751175e-02, -5.60000017285347e-02, -2.800000086426717e-02, 4.255373436036178e-16, 2.800000086426753e-02, 5.60000017285347e-02, 8.399999886751175e-02, 1.120000034570694e-01, 1.400000005960464e-01, 1.260000020265579e-01, 1.120000034570694e-01, 9.799999743700027e-02, 8.399999886751175e-02, 7.000000029802322e-02, 5.60000017285347e-02, 4.199999943375587e-02, 2.800000086426735e-02, 1.400000043213367e-02, 0e+00, 0e+00, 0e+00, 0e+00, 0e+00, 0e+00, 0e+00, 0e+00, 0e+00, 0e+00, 0e+00, 0e+00, 0e+00, 0e+00, 0e+00, 0e+00, 0e+00, 0e+00, 0e+00, 0e+00, 0e+00, 0e+00, 0e+00, 0e+00, 0e+00, 0e+00, 0e+00, 0e+00, 0e+00, 0e+00, -0e+00]
hex.port_a2.m_flow=[-1.43245414445034e-13, 1.400000005960464e-01, 1.400000005960464e-01, 1.400000005960464e-01, 1.400000005960464e-01, 1.400000005960464e-01, 1.400000005960464e-01, 1.400000005960464e-01, 1.400000005960464e-01, 1.400000005960464e-01, 1.400000005960464e-01, 1.400000005960464e-01, 1.400000005960464e-01, 1.400000005960464e-01, 1.400000005960464e-01, 1.400000005960464e-01, 1.400000005960464e-01, 1.400000005960464e-01, 1.400000005960464e-01, 1.400000005960464e-01, 1.400000005960464e-01, 1.400000005960464e-01, 1.400000005960464e-01, 1.400000005960464e-01, 1.400000005960464e-01, 1.400000005960464e-01, 1.400000005960464e-01, 1.400000005960464e-01, 1.400000005960464e-01, 1.400000005960464e-01, 1.400000005960464e-01, 1.400000005960464e-01, 1.400000005960464e-01, 1.400000005960464e-01, 1.400000005960464e-01, 1.400000005960464e-01, 1.400000005960464e-01, 1.400000005960464e-01, 1.400000005960464e-01, 1.400000005960464e-01, 1.400000005960464e-01, 1.400000005960464e-01, 1.400000005960464e-01, 1.400000005960464e-01, 1.400000005960464e-01, 1.400000005960464e-01, 1.400000005960464e-01, 1.400000005960464e-01, 1.400000005960464e-01, 1.400000005960464e-01, 1.400000005960464e-01, 1.120196580886841e-01, 8.401474356651306e-02, 5.600982904434204e-02, 2.800491452217084e-02, 9.519461626091968e-07, -2.799518406391161e-02, -5.5986188352108e-02, -8.398526161909103e-02, -1.119803711771965e-01, -1.39975443482399e-01, -1.260110586881638e-01, -1.120098307728767e-01, -9.800859540700912e-02, -8.400736749172211e-02, -7.000613957643509e-02, -5.600491538643837e-02, -4.200368374586105e-02, -2.800245769321918e-02, -1.402721740305424e-02, -4.358236083135125e-07, -1.43245414445034e-13, -1.43245414445034e-13, -2.86490828890068e-13, 1.43245414445034e-13, -1.43245414445034e-13, -2.86490828890068e-13, 2.86490828890068e-13, -1.43245414445034e-13, 8.594724866702041e-13, -1.43245414445034e-13, -4.297362433351021e-13, 4.297362433351021e-13, 1.43245414445034e-13, -1.43245414445034e-13, 1.43245414445034e-13, -1.43245414445034e-13, -1.43245414445034e-13, 1.43245414445034e-13, 1.43245414445034e-13, 1.43245414445034e-13, -1.43245414445034e-13, -7.162270993302244e-13, 1.43245414445034e-13, 4.297362433351021e-13, 1.43245414445034e-13, 1.43245414445034e-13, 2.86490828890068e-13, 2.86490828890068e-13, 1.43245414445034e-13, 1.43245414445034e-13]
